      1	beer+can 					541
      2	running+shoe				210
      3	schooling+bannerfish		59
      4	baby+carriage				377
      5	scarlet+macaw				70
      6	clownfish					281
      7	rock+beauty+angelfish		245
      8	stingray+fish				168
      9	strombus+seashell			187
     10	crab						352
     11	goldfish					262
     12	blue+tang+fish				75
     13	octopus						397
     14	lobster						310
     15	seastar						77
     16	frog+seashell				119
     17	emperor+angelfish			448
     18	seahorse					329
     19	computer+mouse				377
     20	toy+monkey					140
     21	iron+man					204
     22	spongebob					188
     23	truck						140
     24	toy+muppet					104
     25	glass+carafe				314
     26	sonic+the+hedgehog+animated 357
     27	toy+gun						356
     28	willow+basket				208
     29	alarm+clock					265
     30	milk+bottle					424