     1	black
     2	white
     3	blue
     4	brown
     5	gray
     6	orange
     7	red
     8	yellow
	 9  green
	10  vehicle
	11  vegetable
	12  fruit
	13  toy
	14  furniture
	15  animal
	16  wheels
	17  round
	18  technological
	19  logo
	20  hands
	21  tail
	22  swims
	23  horns
	24  big
	25  small
	26  fast
	27  slow
	28  wearable
	29  manmade
	30  tool
	31  eatable
	32  drinkable
	33  walks
	34  flys
	35  hairless
	36  furry
	37  spots
	38  strong
	39  weak
	40  static
	41  active
	42  pink
	43  violet
	44  gray
	45  alphabet
	46  alive
	47  toy
	48  building
	49  rectangle
	50  circle