E:/BIL635-FinalProject/ErdSavasci-BIL635-ZeroShot_VisualSearch/targets_with_attributes/first_30_ones/data/PNGImages\t001.png seastar
E:/BIL635-FinalProject/ErdSavasci-BIL635-ZeroShot_VisualSearch/targets_with_attributes/first_30_ones/data/PNGImages\t011.png fish11
E:/BIL635-FinalProject/ErdSavasci-BIL635-ZeroShot_VisualSearch/targets_with_attributes/first_30_ones/data/PNGImages\t019.png fish8
E:/BIL635-FinalProject/ErdSavasci-BIL635-ZeroShot_VisualSearch/targets_with_attributes/first_30_ones/data/PNGImages\t013.png fish6
E:/BIL635-FinalProject/ErdSavasci-BIL635-ZeroShot_VisualSearch/targets_with_attributes/first_30_ones/data/PNGImages\t004.png seastar
E:/BIL635-FinalProject/ErdSavasci-BIL635-ZeroShot_VisualSearch/targets_with_attributes/first_30_ones/data/PNGImages\t003.png fish6
E:/BIL635-FinalProject/ErdSavasci-BIL635-ZeroShot_VisualSearch/targets_with_attributes/first_30_ones/data/PNGImages\t007.png seastar
E:/BIL635-FinalProject/ErdSavasci-BIL635-ZeroShot_VisualSearch/targets_with_attributes/first_30_ones/data/PNGImages\t016.png fish8
E:/BIL635-FinalProject/ErdSavasci-BIL635-ZeroShot_VisualSearch/targets_with_attributes/first_30_ones/data/PNGImages\t002.png seashell16
E:/BIL635-FinalProject/ErdSavasci-BIL635-ZeroShot_VisualSearch/targets_with_attributes/first_30_ones/data/PNGImages\t017.png seastar
E:/BIL635-FinalProject/ErdSavasci-BIL635-ZeroShot_VisualSearch/targets_with_attributes/first_30_ones/data/PNGImages\t005.png fish8
E:/BIL635-FinalProject/ErdSavasci-BIL635-ZeroShot_VisualSearch/targets_with_attributes/first_30_ones/data/PNGImages\t006.png fish6
E:/BIL635-FinalProject/ErdSavasci-BIL635-ZeroShot_VisualSearch/targets_with_attributes/first_30_ones/data/PNGImages\t012.png fish8
E:/BIL635-FinalProject/ErdSavasci-BIL635-ZeroShot_VisualSearch/targets_with_attributes/first_30_ones/data/PNGImages\t015.png fish8
E:/BIL635-FinalProject/ErdSavasci-BIL635-ZeroShot_VisualSearch/targets_with_attributes/first_30_ones/data/PNGImages\t009.png seastar
E:/BIL635-FinalProject/ErdSavasci-BIL635-ZeroShot_VisualSearch/targets_with_attributes/first_30_ones/data/PNGImages\t014.png seastar
E:/BIL635-FinalProject/ErdSavasci-BIL635-ZeroShot_VisualSearch/targets_with_attributes/first_30_ones/data/PNGImages\t010.png seastar
E:/BIL635-FinalProject/ErdSavasci-BIL635-ZeroShot_VisualSearch/targets_with_attributes/first_30_ones/data/PNGImages\t020.png seastar
E:/BIL635-FinalProject/ErdSavasci-BIL635-ZeroShot_VisualSearch/targets_with_attributes/first_30_ones/data/PNGImages\t008.png fish8
E:/BIL635-FinalProject/ErdSavasci-BIL635-ZeroShot_VisualSearch/targets_with_attributes/first_30_ones/data/PNGImages\t018.png fish8
